    Experiment,   Matrix size, Construct (s), Randomize (s),       Float 0,       Float 1,       Float 2,      Double 0,      Double 1,      Double 2,
             1,             2,   0.000003905,   0.000013435,   0.000000967,   0.000000598,   0.000000484,   0.000000866,   0.000000505,    0.000000502
             2,             4,   0.000000883,   0.000010014,   0.000000552,   0.000000516,   0.000000504,   0.000000584,   0.000000504,    0.000000512
             3,             8,   0.000000961,   0.000010060,   0.000000625,   0.000000517,   0.000000516,   0.000000555,   0.000000514,    0.000000515
             4,            16,   0.000000851,   0.000010312,   0.000000572,   0.000000546,   0.000000532,   0.000000583,   0.000000523,    0.000000522
             5,            32,   0.000001107,   0.000010832,   0.000000540,   0.000000551,   0.000000547,   0.000000565,   0.000000549,    0.000000544
             6,            64,   0.000001160,   0.000011935,   0.000000620,   0.000000591,   0.000000587,   0.000000645,   0.000000591,    0.000000591
             7,           128,   0.000001828,   0.000014036,   0.000000730,   0.000000652,   0.000000675,   0.000000683,   0.000000648,    0.000000647
             8,           256,   0.000001760,   0.000017941,   0.000000841,   0.000000810,   0.000000839,   0.000000920,   0.000000839,    0.000000838
             9,           512,   0.000004310,   0.000027196,   0.000001192,   0.000001178,   0.000001171,   0.000001233,   0.000001178,    0.000001171
            10,          1024,   0.000006710,   0.000047320,   0.000001866,   0.000001843,   0.000001848,   0.000001907,   0.000001848,    0.000001846
            11,          2048,   0.000019478,   0.000085723,   0.000003281,   0.000003193,   0.000003182,   0.000003283,   0.000003212,    0.000003201
            12,          4096,   0.000029333,   0.000169114,   0.000005982,   0.000005869,   0.000005884,   0.000005974,   0.000005873,    0.000005901
            13,          8192,   0.000064837,   0.000316184,   0.000011343,   0.000011223,   0.000011260,   0.000011373,   0.000011254,    0.000011279
            14,         16384,   0.000144902,   0.000628119,   0.000022234,   0.000021967,   0.000021970,   0.000022504,   0.000022502,    0.000022350
            15,         32768,   0.000329499,   0.001245676,   0.000043752,   0.000043698,   0.000043706,   0.000044182,   0.000044123,    0.000044047
            16,         65536,   0.000647805,   0.002470992,   0.000086600,   0.000086655,   0.000086764,   0.000091587,   0.000087481,    0.000087412
            17,        131072,   0.001284862,   0.004949186,   0.000172174,   0.000172137,   0.000175656,   0.000172879,   0.000172956,    0.000172832
            18,        262144,   0.002507633,   0.009865862,   0.000343250,   0.000343280,   0.000348316,   0.000345367,   0.000344033,    0.000352018
            19,        524288,   0.005043455,   0.019720896,   0.000691818,   0.000685493,   0.000689877,   0.000694865,   0.000691491,    0.000698974
